{
    "Name": "Tire",
    "DisplayName": "Tire",
    "Description": "Tire",
    "Kind": "Resource",
    "EnumDeclarations": [],
    "Permissions": [
        {
            "Operation": "Find",
            // Browse types
            "Role": "*"
        },
        {
            "Operation": "Read",
            // Read type
            "Role": "*"
        },
        {
            "Operation": "FindInstance",
            // Browse instances
            "Role": "*"
        },
        {
            "Operation": "ReadInstance",
            // Read instance
            "Role": "*"
        },
        {
            "Operation": "ReadUnpublishedInstance",
            // Read unpublished instance
            "Role": "*"
        },
        {
            "Operation": "CreateInstance",
            // Create a new instance
            "Role": "*"
        },
        {
            "Operation": "Update",
            // Update the type
            "Role": "*"
        },
        {
            "Operation": "UpdateInstance",
            // Update an existing instance
            "Role": "*"
        },
        {
            "Operation": "PublishInstance",
            // Publish an existing instance
            "Role": "*"
        },
        {
            "Operation": "Delete",
            // Delete the type
            "Role": "*"
        },
        {
            "Operation": "DeleteInstance",
            // Delete an instance
            "Role": "*"
        }
    ],
    "Properties": [
        {
            "Type": "Number",
            "Name": "AspectRatio",
            "DisplayName": "Aspect ratio"
        },
        {
            "Type": "Number",
            "Name": "Width",
            "DisplayName": "Width",
            "Unit": "mm"
        },
        {
            "Type": "Number",
            "Name": "WheelDiameter",
            "DisplayName": "Wheel diameter",
            "Unit": "inch"
        }
    ]
}